{
  "builders": [{
    "type": "amazon-ebs",
    "ami_name": "ami-api-server-rtzq0",
    "source_ami": "ami-03fe94bfaa39c521e",
    "source_ami_filter": {
      "filters": {
        "virtualization-type": "hvm",
        "name": "ubuntu/images/hvm-ssd/ubuntu-eoan-19.10-amd64-server-*",
        "root-device-type": "ebs"
      },
      "owners": ["099720109477"],
      "most_recent": true
    },
    "ssh_username": "ubuntu",
    "instance_type": "t2.micro",
    "force_deregister": "true",
    "force_delete_snapshot": "true",
    "tags": {
       "srv": "packer",
       "name": "ami-latestbuildapi-jasonritzke",
       "purpose": "Latest build API",
       "author": "Jason Ritzke"
    }
  }],
  "provisioners" : [{
    "type": "file",
    "source": "api_server",
    "destination": "/tmp"
  },{
    "type": "shell",
    "scripts": ["bootstrap.sh"],
    "execute_command": "echo 'packer' | sudo -S sh -c '{{ .Vars }} {{ .Path }}'",
    "pause_before": "30s"
  }]
}
